dplyr
…
filter(situacion_laboral_madre, Año == "2013*")

## # A tibble: 1 x 6
##   Año   Quehaceres_hogar Estudiante Incapacitado_trabaj… Jubilado_pension…  Otra
##   <chr>            <dbl>      <dbl>                <dbl>             <dbl> <dbl>
## 1 2013*             76.6       7.70               0.0129            0.0259  15.7

dplyr 
 Ejemplo III

mutate(nacimiento_lugar_residencia, año_entero = as.integer(substr(Año, 1, 4)))

## # A tibble: 30 x 5
##    Año    Área_rural Área_urbana No_especificado año_entero
##    <chr>       <dbl>       <dbl>           <dbl>      <int>
##  1 1990.0       40.1        59.2           0.639       1990
##  2 1991.0       40.8        58.2           0.957       1991
##  3 1992.0       37.6        61.7           0.626       1992
##  4 1993.0       36.5        62.6           0.858       1993
##  5 1994.0       35.3        63.7           0.940       1994
##  6 1995.0       38.2        61.0           0.801       1995
##  7 1996.0       38.3        60.5           1.14        1996
##  8 1997.0       36.8        61.9           1.37        1997
##  9 1998.0       35.3        62.9           1.81        1998
## 10 1999.0       35.8        61.7           2.53        1999
## # … with 20 more rows
…
dplyr 
 Cálculos agregados group_by()

Para realizar cálculos agrupados por el año

nacimiento_general %>%
  select(Entidad, `Nacimientos_10-14`) %>% 
  group_by(Entidad) %>% 
  summarise(nacimientos_10_14 = sum(`Nacimientos_10-14`))

## `summarise()` ungrouping output (override with `.groups` argument)

## # A tibble: 33 x 2
##    Entidad              nacimientos_10_14
##    <chr>                            <dbl>
##  1 Aguascalientes                    2233
##  2 Baja California                   6542
##  3 Baja California Sur               1478
##  4 Campeche                          2835
##  5 Chiapas                          21934
##  6 Chihuahua                         8984
##  7 Ciudad de México                  9534
##  8 Coahuila de Zaragoza              8205
##  9 Colima                            1727
## 10 Durango                           4306
## # … with 23 more rows
